{
  "images" : [
    {
      "idiom" : "iphone",
      "scale" : "1x",
      "filename" : "Launchimage.png"
    },
    {
      "idiom" : "iphone",
      "scale" : "2x",
      "filename" : "Launchimage@2x.png"
    },
    {
      "idiom" : "iphone",
      "scale" : "3x",
      "filename" : "LaunchimageRetina4.png"
    }
  ],
  "info" : {
    "version" : 1,
    "author" : "xcode"
  }
}